CMV Simulation - Simple Gridded CVM Simulation
…
Warning in lavaan::lavParTable(m, fixed.x = F): lavaan WARNING: input already
looks like a parameter table; returning as is

Warning in sim_standardized_matrices(m, ...): Because the following relationship was not set, it is assumed to be 0:
X =~ x1

Warning in lavaan::lavaanify(., fixed.x = FALSE): lavaan WARNING: input already
looks like a parameter table; returning as is

# A tibble: 1,000 × 16
      x1    x2    x3    y1    y2    y3    z1    z2    z3  CMV1  CMV2  CMV3  CMV4
   <int> <int> <int> <int> <int> <int> <int> <int> <int> <int> <int> <int> <int>
 1     4     3     3     5     3     5     5     5     5     2     4     1     3
 2     3     2     2     3     3     5     2     2     1     3     5     4     2
 3     2     1     1     4     3     4     4     4     4     2     3     4     2
 4     1     2     3     3     4     3     5     5     4     1     4     3     2
 5     4     4     5     3     4     3     2     3     3     2     5     1     3
 6     2     2     3     4     3     3     2     3     3     2     3     2     2
 7     4     5     4     4     5     5     5     5     5     1     2     3     3
 8     3     2     3     1     1     1     2     3     2     5     1     2     4
 9     4     3     3     5     5     4     3     2     3     5     5     2     4
10     4     4     4     2     3     3     3     3     2     4     3     4     2
# ℹ 990 more rows
# ℹ 3 more variables: CMV5 <int>, CMV6 <int>, CMV7 <int>
…
Warning in lavaan::lavaan(model = fixed2free(cfa_model_pars), data = cfa_sim, : lavaan WARNING:
    the optimizer warns that a solution has NOT been found!

Warning in lavaan::lavParTable(m, fixed.x = F): lavaan WARNING: input already
looks like a parameter table; returning as is

Warning in sim_standardized_matrices(m, ...): Because the following relationship was not set, it is assumed to be 0:
X =~ x1

Warning in lavaan::lavaanify(., fixed.x = FALSE): lavaan WARNING: input already
looks like a parameter table; returning as is

# A tibble: 1,000 × 16
      x1    x2    x3    y1    y2    y3    z1    z2    z3  CMV1  CMV2  CMV3  CMV4
   <int> <int> <int> <int> <int> <int> <int> <int> <int> <int> <int> <int> <int>
 1     3     3     2     1     1     1     1     1     1     2     4     1     1
 2     1     1     1     2     2     2     1     2     2     2     4     3     3
 3     3     2     3     3     3     4     2     1     1     3     3     3     5
 4     1     1     1     4     4     4     1     1     1     2     4     3     5
 5     3     3     4     2     3     2     2     2     1     3     3     3     4
 6     3     4     4     1     2     1     5     5     5     4     5     3     4
 7     3     3     2     3     4     3     4     5     5     2     4     2     5
 8     1     1     1     1     2     2     2     2     1     5     1     4     4
 9     1     1     1     3     3     4     2     3     3     3     2     4     3
10     3     2     3     3     5     5     4     4     4     4     3     1     4
# ℹ 990 more rows
# ℹ 3 more variables: CMV5 <int>, CMV6 <int>, CMV7 <int>
…
